generated/SystemTop.vcd
$date
2022-11-18T17:38+0000
$end
$version
0.2
$end
$comment

$end
$timescale 1ns  $end
$scope module SystemTop $end
 $var wire 32 # io_testerDataMemDataRead $end
 $var wire 1 5 io_testerDataMemWriteEnable $end
 $var wire 32 b io_testerDataMemDataWrite $end
 $var wire 1 g io_start $end
 $var wire 1 r io_testerDataMemEnable $end
 $var wire 1 "* clock $end
 $var wire 16 "8 io_testerDataMemAddress $end
 $var wire 1 "9 dataMemory $end
 $var wire 1 "< accelerator $end
 $var wire 1 "B io_done $end
 $var wire 1 "h reset $end
  $scope module dataMemory $end
   $var wire 32 ! _GEN_11 $end
   $var wire 32 ' io_testerDataWrite $end
   $var wire 1 3 clock $end
   $var wire 1 7 io_testerEnable $end
   $var wire 32 J io_dataRead $end
   $var wire 32 K io_dataWrite $end
   $var wire 1 n io_testerWriteEnable $end
   $var wire 32 o _GEN_5 $end
   $var wire 16 "& io_address $end
   $var wire 1 ") io_writeEnable $end
   $var wire 16 "A io_testerAddress $end
   $var wire 32 "F memory $end
   $var wire 32 "W io_testerDataRead $end
    $scope module memory $end
      $scope module _T_1 $end
       $var wire 16 % addr $end
       $var wire 16 1 pipeline_addr_0 $end
       $var wire 1 : en $end
       $var wire 32 \ data $end
       $var wire 32 ~ pipeline_data_0 $end
       $var wire 1 "= pipeline_valid_0 $end
       $var wire 1 "K valid $end
       $var wire 1 "Y mask $end
       $var wire 1 "k clk $end
      $upscope $end
      $scope module _T $end
       $var wire 1 + clk $end
       $var wire 16 "% addr $end
       $var wire 1 "( en $end
       $var wire 32 "b data $end
      $upscope $end
      $scope module _T_3 $end
       $var wire 1 8 pipeline_valid_0 $end
       $var wire 1 = en $end
       $var wire 1 > mask $end
       $var wire 16 C pipeline_addr_0 $end
       $var wire 16 i addr $end
       $var wire 1 "# clk $end
       $var wire 32 ": pipeline_data_0 $end
       $var wire 32 "J data $end
       $var wire 1 "v valid $end
      $upscope $end
      $scope module _T_2 $end
       $var wire 1 E clk $end
       $var wire 16 L addr $end
       $var wire 32 z data $end
       $var wire 1 "3 en $end
      $upscope $end
    $upscope $end
  $upscope $end
  $scope module accelerator $end
   $var wire 21 " _GEN_2 $end
   $var wire 4 $ _GEN_13 $end
   $var wire 1 & _GEN_96 $end
   $var wire 16 ( _GEN_110 $end
   $var wire 4 ) _GEN_28 $end
   $var wire 4 * _GEN_34 $end
   $var wire 16 , _GEN_104 $end
   $var wire 4 - _GEN_90 $end
   $var wire 16 . _GEN_5 $end
   $var wire 8 / _GEN_78 $end
   $var wire 1 0 _GEN_107 $end
   $var wire 4 2 _GEN_99 $end
   $var wire 16 4 _GEN_16 $end
   $var wire 32 6 _GEN_84 $end
   $var wire 16 9 yReg $end
   $var wire 1 ; _GEN_72 $end
   $var wire 1 < _GEN_66 $end
   $var wire 16 ? _GEN_87 $end
   $var wire 1 @ _GEN_93 $end
   $var wire 32 A _GEN_51 $end
   $var wire 21 B _GEN_124 $end
   $var wire 16 D _GEN_81 $end
   $var wire 4 F _GEN_75 $end
   $var wire 1 G _GEN_48 $end
   $var wire 1 H _GEN_33 $end
   $var wire 16 I _GEN_54 $end
   $var wire 32 M _GEN_60 $end
   $var wire 8 N _GEN_69 $end
   $var wire 4 O _GEN_106 $end
   $var wire 16 P _GEN_57 $end
   $var wire 4 Q _GEN_15 $end
   $var wire 16 R _GEN_42 $end
   $var wire 16 S _GEN_112 $end
   $var wire 8 T _GEN_36 $end
   $var wire 16 U _GEN_63 $end
   $var wire 4 V _GEN_21 $end
   $var wire 1 W reset $end
   $var wire 16 X _GEN_24 $end
   $var wire 16 Y _GEN_30 $end
   $var wire 16 Z _GEN_7 $end
   $var wire 32 [ _GEN_92 $end
   $var wire 4 ] _GEN_18 $end
   $var wire 8 ^ _GEN_45 $end
   $var wire 4 _ _GEN_115 $end
   $var wire 16 ` _GEN_121 $end
   $var wire 16 a _GEN_39 $end
   $var wire 8 c _GEN_109 $end
   $var wire 8 d _GEN_100 $end
   $var wire 8 e _GEN_118 $end
   $var wire 16 f _GEN_103 $end
   $var wire 16 h _GEN_74 $end
   $var wire 16 j _GEN_27 $end
   $var wire 16 k _GEN_95 $end
   $var wire 1 l _GEN_80 $end
   $var wire 8 m _GEN_89 $end
   $var wire 4 p stateReg $end
   $var wire 4 q _GEN_1 $end
   $var wire 32 s _GEN_77 $end
   $var wire 4 t _GEN_4 $end
   $var wire 4 u _GEN_83 $end
   $var wire 1 v _T $end
   $var wire 16 w _GEN_62 $end
   $var wire 21 x _GEN_98 $end
   $var wire 1 y _GEN_56 $end
   $var wire 16 { _GEN_38 $end
   $var wire 16 | _GEN_50 $end
   $var wire 8 } _GEN_86 $end
   $var wire 1 "! _GEN_44 $end
   $var wire 4 "" _GEN_59 $end
   $var wire 16 "$ _GEN_71 $end
   $var wire 16 "' _GEN_65 $end
   $var wire 16 "+ _GEN_32 $end
   $var wire 16 ", _GEN_47 $end
   $var wire 8 "- _GEN_53 $end
   $var wire 21 ". _GEN_117 $end
   $var wire 1 "/ io_done $end
   $var wire 16 "0 _GEN_11 $end
   $var wire 32 "1 _GEN_68 $end
   $var wire 16 "2 _GEN_26 $end
   $var wire 1 "4 io_writeEnable $end
   $var wire 1 "5 _GEN_35 $end
   $var wire 4 "6 _GEN_41 $end
   $var wire 32 "7 _GEN_111 $end
   $var wire 1 "; _GEN_29 $end
   $var wire 1 "> _GEN_105 $end
   $var wire 16 "? xReg $end
   $var wire 32 "@ _GEN_120 $end
   $var wire 1 "C _GEN_114 $end
   $var wire 32 "D io_dataWrite $end
   $var wire 16 "E _GEN_85 $end
   $var wire 16 "G inReg $end
   $var wire 16 "H _GEN_91 $end
   $var wire 21 "I _GEN_108 $end
   $var wire 32 "L _GEN_6 $end
   $var wire 8 "M _GEN_23 $end
   $var wire 4 "N _GEN_0 $end
   $var wire 16 "O io_address $end
   $var wire 1 "P clock $end
   $var wire 4 "Q _GEN_9 $end
   $var wire 32 "R _GEN_102 $end
   $var wire 1 "S _GEN_88 $end
   $var wire 1 "T io_start $end
   $var wire 32 "U io_dataRead $end
   $var wire 16 "V _GEN_73 $end
   $var wire 4 "X _GEN_67 $end
   $var wire 16 "Z _GEN_94 $end
   $var wire 32 "[ dataRead $end
   $var wire 8 "\ _GEN_61 $end
   $var wire 4 "] _GEN_49 $end
   $var wire 1 "^ _GEN_82 $end
   $var wire 1 "_ _GEN_40 $end
   $var wire 1 "` _GEN_97 $end
   $var wire 16 "a _GEN_55 $end
   $var wire 4 "c _GEN_3 $end
   $var wire 1 "d _GEN_76 $end
   $var wire 16 "e _GEN_113 $end
   $var wire 16 "f _GEN_79 $end
   $var wire 16 "g _GEN_70 $end
   $var wire 16 "i _GEN_37 $end
   $var wire 32 "j _GEN_43 $end
   $var wire 1 "l _GEN_58 $end
   $var wire 1 "m _GEN_22 $end
   $var wire 1 "n _GEN_64 $end
   $var wire 4 "o _GEN_31 $end
   $var wire 16 "p _GEN_46 $end
   $var wire 16 "q _GEN_101 $end
   $var wire 1 "r _GEN_52 $end
   $var wire 16 "s _GEN_122 $end
   $var wire 32 "t _GEN_10 $end
   $var wire 16 "u _GEN_19 $end
  $upscope $end
$upscope $end
$enddefinitions $end
$dumpvars
b000000000000000000000 "
0&
b00000000000000000000000000000000 '
b0000000000000000 "E
b0000 "N
b0000 "c
0=
b00000000 d
b0000000000000000 "0
b00000000000000000000000000000000 "j
b00000000000000000000000000000000 "U
b0000000000000000 a
0"P
b0000000000000000 "?
b0000 O
b0000000000000000 "u
0"v
b0000 Q
b0000000000000000 "&
0g
b000000000000000000000 "I
b00000000000000000000000000000000 K
05
b00000000000000000000000000000000 6
b0000000000000000 %
0")
b0000000000000000 "q
0"r
b0000000000000000 f
b00000000000000000000000000000000 b
b0000 "]
b0000000000000000 4
0"#
0"n
0r
b00000000000000000000000000000000 s
0H
0"<
1>
0@
0+
b00000000000000000000000000000000 A
b0000000000000000 "g
0W
b0000 "6
b0000000000000000 {
0v
b00000000 /
b00000000000000000000000000000000 "R
b0000000000000000 I
b0000 q
0"l
b0000000000000000 `
0"d
b0000000000000000 X
b0000000000000000 C
b0000000000000000 .
b00000000 e
b0000000000000000 w
b0000 V
b0000000000000000 Z
0"4
b0000 $
b0000000000000000 (
0l
0"`
0"K
b0000000000000000 ?
0"C
0:
b0000000000000000 k
b0000000000000000 "'
b00000000000000000000000000000000 J
b0000000000000000 9
0"(
b0000000000000000 "p
b00000000000000000000000000000000 "L
b00000000000000000000000000000000 "D
0"*
b00000000 "M
b00000000000000000000000000000000 "1
b0000000000000000 "8
0E
00
b0000000000000000 "O
b00000000000000000000000000000000 "@
b0000000000000000 "2
b0000 t
b0000 _
b00000000000000000000000000000000 "W
0"=
b0000 -
b0000000000000000 1
0"T
0;
b0000000000000000 |
b0000 p
0"k
b00000000000000000000000000000000 [
0"9
b0000 )
b00000000 "\
b00000000000000000000000000000000 !
b0000000000000000 "G
b0000000000000000 Y
b0000000000000000 D
0"3
07
b00000000 ^
b00000000000000000000000000000000 #
b0000000000000000 "s
b00000000000000000000000000000000 ":
0"_
b0000000000000000 "A
b0000000000000000 ",
b0000000000000000 "V
b0000000000000000 "$
b0000000000000000 U
0"/
03
b0000000000000000 "Z
b00000000 T
b00000000000000000000000000000000 "b
b0000000000000000 "i
b00000000000000000000000000000000 M
b000000000000000000000 ".
b00000000 N
b0000000000000000 h
b0000000000000000 S
0"B
b00000000000000000000000000000000 \
b0000 2
b0000 *
b00000000 m
b0000000000000000 j
b0000000000000000 "e
b0000000000000000 "H
b0000 "Q
b000000000000000000000 x
b0000 u
b00000000 "-
0"h
0"S
0">
0"!
b0000000000000000 "a
b00000000000000000000000000000000 o
0n
b0000000000000000 ,
b00000000 c
0<
b000000000000000000000 B
b00000000000000000000000000000000 "7
b0000000000000000 "+
08
b0000000000000000 "%
b00000000000000000000000000000000 "J
b00000000000000000000000000000000 ~
b0000000000000000 P
1"Y
b0000 ""
0"^
b00000000000000000000000000000000 "F
b0000000000000000 R
b0000 F
b00000000000000000000000000000000 "[
0y
b0000 ]
0"m
b0000 "X
b0000000000000000 L
0G
0";
b0000000000000000 i
b00000000000000000000000000000000 z
b00000000000000000000000000000000 "t
b0000000000000000 "f
b0000 "o
b00000000 }
0"5
$end
#0
b0101 Q
1v
1"3
b0110 "Q
b0000000110010000 Z
1"h
b0010 q
b0000000110010000 "0
b0011 "c
b0101 V
b0101 ]
b0110 $
1W
b0101 t
#1
13
1"P
1E
1"#
1"k
1+
1"*
#6
03
0"P
0E
0"#
0"k
0+
0"*
#11
13
1"P
1E
1"#
1"k
1+
1"*
#16
03
0"P
0E
0"#
0"k
0+
0"*
#21
13
1"P
1E
1"#
1"k
1+
1"*
#26
03
0"P
0E
0"#
0"k
0+
0"*
#31
13
1"P
1E
1"#
1"k
1+
1"*
#36
03
0"P
0E
0"#
0"k
0+
0"*
#41
13
1"P
1E
1"#
1"k
1+
1"*
#46
03
0"P
0"3
15
0E
0"h
17
1"K
1r
1"(
0W
0"#
0"k
0+
1:
0"*
1n
#51
13
1"P
1E
1"#
1"k
1+
1"*
1"=
#56
03
b0000000000000001 "A
0"P
b0000000000000001 %
b0000000000000001 "%
b0000000000000001 "8
0"#
0"k
0E
0+
0"*
#61
13
1"P
b0000000000000001 1
1E
1"#
1"k
1+
1"*
#66
03
b0000000000000010 "A
0"P
b0000000000000010 %
b0000000000000010 "%
b0000000000000010 "8
0"#
0"k
0E
0+
0"*
#71
13
1"P
b0000000000000010 1
1E
1"#
1"k
1+
1"*
#76
03
b0000000000000011 "A
0"P
b0000000000000011 %
b0000000000000011 "%
b0000000000000011 "8
0"#
0"k
0E
0+
0"*
#81
13
1"P
b0000000000000011 1
1E
1"#
1"k
1+
1"*
#86
03
b0000000000000100 "A
0"P
b0000000000000100 %
b0000000000000100 "%
b0000000000000100 "8
0"#
0"k
0E
0+
0"*
#91
13
1"P
b0000000000000100 1
1E
1"#
1"k
1+
1"*
#96
03
b0000000000000101 "A
0"P
b0000000000000101 %
b0000000000000101 "%
b0000000000000101 "8
0"#
0"k
0E
0+
0"*
#101
13
1"P
b0000000000000101 1
1E
1"#
1"k
1+
1"*
#106
03
b0000000000000110 "A
0"P
b0000000000000110 %
b0000000000000110 "%
b0000000000000110 "8
0"#
0"k
0E
0+
0"*
#111
13
1"P
b0000000000000110 1
1E
1"#
1"k
1+
1"*
#116
03
b0000000000000111 "A
0"P
b0000000000000111 %
b0000000000000111 "%
b0000000000000111 "8
0"#
0"k
0E
0+
0"*
#121
13
1"P
b0000000000000111 1
1E
1"#
1"k
1+
1"*
#126
03
b0000000000001000 "A
0"P
b0000000000001000 %
b0000000000001000 "%
b0000000000001000 "8
0"#
0"k
0E
0+
0"*
#131
13
1"P
b0000000000001000 1
1E
1"#
1"k
1+
1"*
#136
03
b0000000000001001 "A
0"P
b0000000000001001 %
b0000000000001001 "%
b0000000000001001 "8
0"#
0"k
0E
0+
0"*
#141
13
1"P
b0000000000001001 1
1E
1"#
1"k
1+
1"*
#146
03
b0000000000001010 "A
0"P
b0000000000001010 %
b0000000000001010 "%
b0000000000001010 "8
0"#
0"k
0E
0+
0"*
#151
13
1"P
b0000000000001010 1
1E
1"#
1"k
1+
1"*
#156
03
b0000000000001011 "A
0"P
b0000000000001011 %
b0000000000001011 "%
b0000000000001011 "8
0"#
0"k
0E
0+
0"*
#161
13
1"P
b0000000000001011 1
1E
1"#
1"k
1+
1"*
#166
03
b0000000000001100 "A
0"P
b0000000000001100 %
b0000000000001100 "%
b0000000000001100 "8
0"#
0"k
0E
0+
0"*
#171
13
1"P
b0000000000001100 1
1E
1"#
1"k
1+
1"*
#176
03
b0000000000001101 "A
0"P
b0000000000001101 %
b0000000000001101 "%
b0000000000001101 "8
0"#
0"k
0E
0+
0"*
#181
13
1"P
b0000000000001101 1
1E
1"#
1"k
1+
1"*
#186
03
b0000000000001110 "A
0"P
b0000000000001110 %
b0000000000001110 "%
b0000000000001110 "8
0"#
0"k
0E
0+
0"*
#191
13
1"P
b0000000000001110 1
1E
1"#
1"k
1+
1"*
#196
03
b0000000000001111 "A
0"P
b0000000000001111 %
b0000000000001111 "%
b0000000000001111 "8
0"#
0"k
0E
0+
0"*
#201
13
1"P
b0000000000001111 1
1E
1"#
1"k
1+
1"*
#206
03
b0000000000010000 "A
0"P
b0000000000010000 %
b0000000000010000 "%
b0000000000010000 "8
0"#
0"k
0E
0+
0"*
#211
13
1"P
b0000000000010000 1
1E
1"#
1"k
1+
1"*
#216
03
b0000000000010001 "A
0"P
b0000000000010001 %
b0000000000010001 "%
b0000000000010001 "8
0"#
0"k
0E
0+
0"*
#221
13
1"P
b0000000000010001 1
1E
1"#
1"k
1+
1"*
#226
03
b0000000000010010 "A
0"P
b0000000000010010 %
b0000000000010010 "%
b0000000000010010 "8
0"#
0"k
0E
0+
0"*
#231
13
1"P
b0000000000010010 1
1E
1"#
1"k
1+
1"*
#236
03
b0000000000010011 "A
0"P
b0000000000010011 %
b0000000000010011 "%
b0000000000010011 "8
0"#
0"k
0E
0+
0"*
#241
13
1"P
b0000000000010011 1
1E
1"#
1"k
1+
1"*
#246
03
b0000000000010100 "A
0"P
b0000000000010100 %
b0000000000010100 "%
b0000000000010100 "8
0"#
0"k
0E
0+
0"*
#251
13
1"P
b0000000000010100 1
1E
1"#
1"k
1+
1"*
#256
03
b0000000000010101 "A
0"P
b0000000000010101 %
b0000000000010101 "%
b0000000000010101 "8
0"#
0"k
0E
0+
0"*
#261
13
1"P
b0000000000010101 1
1E
1"#
1"k
1+
1"*
#266
03
b0000000000010110 "A
0"P
b0000000000010110 %
b0000000000010110 "%
b0000000000010110 "8
0"#
0"k
0E
0+
0"*
#271
13
1"P
b0000000000010110 1
1E
1"#
1"k
1+
1"*
#276
03
b0000000000010111 "A
0"P
b0000000000010111 %
b0000000000010111 "%
b0000000000010111 "8
0"#
0"k
0E
0+
0"*
#281
13
1"P
b0000000000010111 1
1E
1"#
1"k
1+
1"*
#286
03
b0000000000011000 "A
0"P
b0000000000011000 %
b0000000000011000 "%
b0000000000011000 "8
0"#
0"k
0E
0+
0"*
#291
13
1"P
b0000000000011000 1
1E
1"#
1"k
1+
1"*
#296
03
b0000000000011001 "A
0"P
b0000000000011001 %
b0000000000011001 "%
b0000000000011001 "8
0"#
0"k
0E
0+
0"*
#301
13
1"P
b0000000000011001 1
1E
1"#
1"k
1+
1"*
#306
03
b0000000000011010 "A
0"P
b0000000000011010 %
b0000000000011010 "%
b0000000000011010 "8
0"#
0"k
0E
0+
0"*
#311
13
1"P
b0000000000011010 1
1E
1"#
1"k
1+
1"*
#316
03
b0000000000011011 "A
0"P
b0000000000011011 %
b0000000000011011 "%
b0000000000011011 "8
0"#
0"k
0E
0+
0"*
#321
13
1"P
b0000000000011011 1
1E
1"#
1"k
1+
1"*
#326
03
b0000000000011100 "A
0"P
b0000000000011100 %
b0000000000011100 "%
b0000000000011100 "8
0"#
0"k
0E
0+
0"*
#331
13
1"P
b0000000000011100 1
1E
1"#
1"k
1+
1"*
#336
03
b0000000000011101 "A
0"P
b0000000000011101 %
b0000000000011101 "%
b0000000000011101 "8
0"#
0"k
0E
0+
0"*
#341
13
1"P
b0000000000011101 1
1E
1"#
1"k
1+
1"*
#346
03
b0000000000011110 "A
0"P
b0000000000011110 %
b0000000000011110 "%
b0000000000011110 "8
0"#
0"k
0E
0+
0"*
#351
13
1"P
b0000000000011110 1
1E
1"#
1"k
1+
1"*
#356
03
b0000000000011111 "A
0"P
b0000000000011111 %
b0000000000011111 "%
b0000000000011111 "8
0"#
0"k
0E
0+
0"*
#361
13
1"P
b0000000000011111 1
1E
1"#
1"k
1+
1"*
#366
03
b0000000000100000 "A
0"P
b0000000000100000 %
b0000000000100000 "%
b0000000000100000 "8
0"#
0"k
0E
0+
0"*
#371
13
1"P
b0000000000100000 1
1E
1"#
1"k
1+
1"*
#376
03
b0000000000100001 "A
0"P
b0000000000100001 %
b0000000000100001 "%
b0000000000100001 "8
0"#
0"k
0E
0+
0"*
#381
13
1"P
b0000000000100001 1
1E
1"#
1"k
1+
1"*
#386
03
b0000000000100010 "A
0"P
b0000000000100010 %
b0000000000100010 "%
b0000000000100010 "8
0"#
0"k
0E
0+
0"*
#391
13
1"P
b0000000000100010 1
1E
1"#
1"k
1+
1"*
#396
03
b0000000000100011 "A
0"P
b0000000000100011 %
b0000000000100011 "%
b0000000000100011 "8
0"#
0"k
0E
0+
0"*
#401
13
1"P
b0000000000100011 1
1E
1"#
1"k
1+
1"*
#406
03
b0000000000100100 "A
0"P
b0000000000100100 %
b0000000000100100 "%
b0000000000100100 "8
0"#
0"k
0E
0+
0"*
#411
13
1"P
b0000000000100100 1
1E
1"#
1"k
1+
1"*
#416
03
b0000000000100101 "A
0"P
b0000000000100101 %
b0000000000100101 "%
b0000000000100101 "8
0"#
0"k
0E
0+
0"*
#421
13
1"P
b0000000000100101 1
1E
1"#
1"k
1+
1"*
#426
03
b0000000000100110 "A
0"P
b0000000000100110 %
b0000000000100110 "%
b0000000000100110 "8
0"#
0"k
0E
0+
0"*
#431
13
1"P
b0000000000100110 1
1E
1"#
1"k
1+
1"*
#436
03
b0000000000100111 "A
0"P
b0000000000100111 %
b0000000000100111 "%
b0000000000100111 "8
0"#
0"k
0E
0+
0"*
#441
13
1"P
b0000000000100111 1
1E
1"#
1"k
1+
1"*
#446
03
b0000000000101000 "A
0"P
b0000000000101000 %
b0000000000101000 "%
b0000000000101000 "8
0"#
0"k
0E
0+
0"*
#451
13
1"P
b0000000000101000 1
1E
1"#
1"k
1+
1"*
#456
03
b0000000000101001 "A
0"P
b0000000000101001 %
b0000000000101001 "%
b0000000000101001 "8
0"#
0"k
0E
0+
0"*
#461
13
1"P
b0000000000101001 1
1E
1"#
1"k
1+
1"*
#466
03
b0000000000101010 "A
0"P
b0000000000101010 %
b0000000000101010 "%
b0000000000101010 "8
0"#
0"k
0E
0+
0"*
#471
13
1"P
b0000000000101010 1
1E
1"#
1"k
1+
1"*
#476
03
b0000000000101011 "A
0"P
b0000000000101011 %
b0000000000101011 "%
b0000000000101011 "8
0"#
0"k
0E
0+
0"*
#481
13
1"P
b0000000000101011 1
1E
1"#
1"k
1+
1"*
#486
03
b0000000000101100 "A
0"P
b0000000000101100 %
b0000000000101100 "%
b0000000000101100 "8
0"#
0"k
0E
0+
0"*
#491
13
1"P
b0000000000101100 1
1E
1"#
1"k
1+
1"*
#496
03
b0000000000101101 "A
0"P
b0000000000101101 %
b0000000000101101 "%
b0000000000101101 "8
0"#
0"k
0E
0+
0"*
#501
13
1"P
b0000000000101101 1
1E
1"#
1"k
1+
1"*
#506
03
b0000000000101110 "A
0"P
b0000000000101110 %
b0000000000101110 "%
b0000000000101110 "8
0"#
0"k
0E
0+
0"*
#511
13
1"P
b0000000000101110 1
1E
1"#
1"k
1+
1"*
#516
03
b0000000000101111 "A
0"P
b0000000000101111 %
b0000000000101111 "%
b0000000000101111 "8
0"#
0"k
0E
0+
0"*
#521
13
1"P
b0000000000101111 1
1E
1"#
1"k
1+
1"*
#526
03
b0000000000110000 "A
0"P
b0000000000110000 %
b0000000000110000 "%
b0000000000110000 "8
0"#
0"k
0E
0+
0"*
#531
13
1"P
b0000000000110000 1
1E
1"#
1"k
1+
1"*
#536
03
b0000000000110001 "A
0"P
b0000000000110001 %
b0000000000110001 "%
b0000000000110001 "8
0"#
0"k
0E
0+
0"*
#541
13
1"P
b0000000000110001 1
1E
1"#
1"k
1+
1"*
#546
03
b0000000000110010 "A
0"P
b0000000000110010 %
b0000000000110010 "%
b0000000000110010 "8
0"#
0"k
0E
0+
0"*
#551
13
1"P
b0000000000110010 1
1E
1"#
1"k
1+
1"*
#556
03
b0000000000110011 "A
0"P
b0000000000110011 %
b0000000000110011 "%
b0000000000110011 "8
0"#
0"k
0E
0+
0"*
#561
13
1"P
b0000000000110011 1
1E
1"#
1"k
1+
1"*
#566
03
b0000000000110100 "A
0"P
b0000000000110100 %
b0000000000110100 "%
b0000000000110100 "8
0"#
0"k
0E
0+
0"*
#571
13
1"P
b0000000000110100 1
1E
1"#
1"k
1+
1"*
#576
03
b0000000000110101 "A
0"P
b0000000000110101 %
b0000000000110101 "%
b0000000000110101 "8
0"#
0"k
0E
0+
0"*
#581
13
1"P
b0000000000110101 1
1E
1"#
1"k
1+
1"*
#586
03
b0000000000110110 "A
0"P
b0000000000110110 %
b0000000000110110 "%
b0000000000110110 "8
0"#
0"k
0E
0+
0"*
#591
13
1"P
b0000000000110110 1
1E
1"#
1"k
1+
1"*
#596
03
b0000000000110111 "A
0"P
b0000000000110111 %
b0000000000110111 "%
b0000000000110111 "8
0"#
0"k
0E
0+
0"*
#601
13
1"P
b0000000000110111 1
1E
1"#
1"k
1+
1"*
#606
03
b0000000000111000 "A
0"P
b0000000000111000 %
b0000000000111000 "%
b0000000000111000 "8
0"#
0"k
0E
0+
0"*
#611
13
1"P
b0000000000111000 1
1E
1"#
1"k
1+
1"*
#616
03
b0000000000111001 "A
0"P
b0000000000111001 %
b0000000000111001 "%
b0000000000111001 "8
0"#
0"k
0E
0+
0"*
#621
13
1"P
b0000000000111001 1
1E
1"#
1"k
1+
1"*
#626
03
b0000000000111010 "A
0"P
b0000000000111010 %
b0000000000111010 "%
b0000000000111010 "8
0"#
0"k
0E
0+
0"*
#631
13
1"P
b0000000000111010 1
1E
1"#
1"k
1+
1"*
#636
03
b0000000000111011 "A
0"P
b0000000000111011 %
b0000000000111011 "%
b0000000000111011 "8
0"#
0"k
0E
0+
0"*
#641
13
1"P
b0000000000111011 1
1E
1"#
1"k
1+
1"*
#646
03
b0000000000111100 "A
0"P
b0000000000111100 %
b0000000000111100 "%
b0000000000111100 "8
0"#
0"k
0E
0+
0"*
#651
13
1"P
b0000000000111100 1
1E
1"#
1"k
1+
1"*
#656
03
b0000000000111101 "A
0"P
b0000000000111101 %
b0000000000111101 "%
b0000000000111101 "8
0"#
0"k
0E
0+
0"*
#661
13
1"P
b0000000000111101 1
1E
1"#
1"k
1+
1"*
#666
03
b0000000000111110 "A
0"P
b0000000000111110 %
b0000000000111110 "%
b0000000000111110 "8
0"#
0"k
0E
0+
0"*
#671
13
1"P
b0000000000111110 1
1E
1"#
1"k
1+
1"*
#676
03
b0000000000111111 "A
0"P
b0000000000111111 %
b0000000000111111 "%
b0000000000111111 "8
0"#
0"k
0E
0+
0"*
#681
13
1"P
b0000000000111111 1
1E
1"#
1"k
1+
1"*
#686
03
b0000000001000000 "A
0"P
b0000000001000000 %
b0000000001000000 "%
b0000000001000000 "8
0"#
0"k
0E
0+
0"*
#691
13
1"P
b0000000001000000 1
1E
1"#
1"k
1+
1"*
#696
03
b0000000001000001 "A
0"P
b0000000001000001 %
b0000000001000001 "%
b0000000001000001 "8
0"#
0"k
0E
0+
0"*
#701
13
1"P
b0000000001000001 1
1E
1"#
1"k
1+
1"*
#706
03
b0000000001000010 "A
0"P
b0000000001000010 %
b0000000001000010 "%
b0000000001000010 "8
0"#
0"k
0E
0+
0"*
#711
13
1"P
b0000000001000010 1
1E
1"#
1"k
1+
1"*
#716
03
b0000000001000011 "A
0"P
b0000000001000011 %
b0000000001000011 "%
b0000000001000011 "8
0"#
0"k
0E
0+
0"*
#721
13
1"P
b0000000001000011 1
1E
1"#
1"k
1+
1"*
#726
03
b0000000001000100 "A
0"P
b0000000001000100 %
b0000000001000100 "%
b0000000001000100 "8
0"#
0"k
0E
0+
0"*
#731
13
1"P
b0000000001000100 1
1E
1"#
1"k
1+
1"*
#736
03
b0000000001000101 "A
0"P
b0000000001000101 %
b0000000001000101 "%
b0000000001000101 "8
0"#
0"k
0E
0+
0"*
#741
13
1"P
b0000000001000101 1
1E
1"#
1"k
1+
1"*
#746
03
b0000000001000110 "A
0"P
b0000000001000110 %
b0000000001000110 "%
b0000000001000110 "8
0"#
0"k
0E
0+
0"*
#751
13
1"P
b0000000001000110 1
1E
1"#
1"k
1+
1"*
#756
03
b0000000001000111 "A
0"P
b0000000001000111 %
b0000000001000111 "%
b0000000001000111 "8
0"#
0"k
0E
0+
0"*
#761
13
1"P
b0000000001000111 1
1E
1"#
1"k
1+
1"*
#766
03
b0000000001001000 "A
0"P
b0000000001001000 %
b0000000001001000 "%
b0000000001001000 "8
0"#
0"k
0E
0+
0"*
#771
13
1"P
b0000000001001000 1
1E
1"#
1"k
1+
1"*
#776
03
b0000000001001001 "A
0"P
b0000000001001001 %
b0000000001001001 "%
b0000000001001001 "8
0"#
0"k
0E
0+
0"*
#781
13
1"P
b0000000001001001 1
1E
1"#
1"k
1+
1"*
#786
03
b0000000001001010 "A
0"P
b0000000001001010 %
b0000000001001010 "%
b0000000001001010 "8
0"#
0"k
0E
0+
0"*
#791
13
1"P
b0000000001001010 1
1E
1"#
1"k
1+
1"*
#796
03
b0000000001001011 "A
0"P
b0000000001001011 %
b0000000001001011 "%
b0000000001001011 "8
0"#
0"k
0E
0+
0"*
#801
13
1"P
b0000000001001011 1
1E
1"#
1"k
1+
1"*
#806
03
b0000000001001100 "A
0"P
b0000000001001100 %
b0000000001001100 "%
b0000000001001100 "8
0"#
0"k
0E
0+
0"*
#811
13
1"P
b0000000001001100 1
1E
1"#
1"k
1+
1"*
#816
03
b0000000001001101 "A
0"P
b0000000001001101 %
b0000000001001101 "%
b0000000001001101 "8
0"#
0"k
0E
0+
0"*
#821
13
1"P
b0000000001001101 1
1E
1"#
1"k
1+
1"*
#826
03
b0000000001001110 "A
0"P
b0000000001001110 %
b0000000001001110 "%
b0000000001001110 "8
0"#
0"k
0E
0+
0"*
#831
13
1"P
b0000000001001110 1
1E
1"#
1"k
1+
1"*
#836
03
b0000000001001111 "A
0"P
b0000000001001111 %
b0000000001001111 "%
b0000000001001111 "8
0"#
0"k
0E
0+
0"*
#841
13
1"P
b0000000001001111 1
1E
1"#
1"k
1+
1"*
#846
03
b0000000001010000 "A
0"P
b0000000001010000 %
b0000000001010000 "%
b0000000001010000 "8
0"#
0"k
0E
0+
0"*
#851
13
1"P
b0000000001010000 1
1E
1"#
1"k
1+
1"*
#856
03
b0000000001010001 "A
0"P
b0000000001010001 %
b0000000001010001 "%
b0000000001010001 "8
0"#
0"k
0E
0+
0"*
#861
13
1"P
b0000000001010001 1
1E
1"#
1"k
1+
1"*
#866
03
b0000000001010010 "A
0"P
b0000000001010010 %
b0000000001010010 "%
b0000000001010010 "8
0"#
0"k
0E
0+
0"*
#871
13
1"P
b0000000001010010 1
1E
1"#
1"k
1+
1"*
#876
03
b0000000001010011 "A
0"P
b0000000001010011 %
b0000000001010011 "%
b0000000001010011 "8
0"#
0"k
0E
0+
0"*
#881
13
1"P
b0000000001010011 1
1E
1"#
1"k
1+
1"*
#886
03
b0000000001010100 "A
0"P
b0000000001010100 %
b0000000001010100 "%
b0000000001010100 "8
0"#
0"k
0E
0+
0"*
#891
13
1"P
b0000000001010100 1
1E
1"#
1"k
1+
1"*
#896
03
b0000000001010101 "A
0"P
b0000000001010101 %
b0000000001010101 "%
b0000000001010101 "8
0"#
0"k
0E
0+
0"*
#901
13
1"P
b0000000001010101 1
1E
1"#
1"k
1+
1"*
#906
03
b0000000001010110 "A
0"P
b0000000001010110 %
b0000000001010110 "%
b0000000001010110 "8
0"#
0"k
0E
0+
0"*
#911
13
1"P
b0000000001010110 1
1E
1"#
1"k
1+
1"*
#916
03
b0000000001010111 "A
0"P
b0000000001010111 %
b0000000001010111 "%
b0000000001010111 "8
0"#
0"k
0E
0+
0"*
#921
13
1"P
b0000000001010111 1
1E
1"#
1"k
1+
1"*
#926
03
b0000000001011000 "A
0"P
b0000000001011000 %
b0000000001011000 "%
b0000000001011000 "8
0"#
0"k
0E
0+
0"*
