generated/SystemTop.vcd
$date
2022-11-10T18:27+0000
$end
$version
0.2
$end
$comment

$end
$timescale 1ns  $end
$scope module SystemTop $end
 $var wire 32 # io_testerDataMemDataRead $end
 $var wire 1 7 io_testerDataMemWriteEnable $end
 $var wire 32 c io_testerDataMemDataWrite $end
 $var wire 1 h io_start $end
 $var wire 1 s io_testerDataMemEnable $end
 $var wire 1 "- clock $end
 $var wire 16 "< io_testerDataMemAddress $end
 $var wire 1 "= dataMemory $end
 $var wire 1 "A accelerator $end
 $var wire 1 "H io_done $end
 $var wire 1 "n reset $end
  $scope module dataMemory $end
   $var wire 32 ! _GEN_11 $end
   $var wire 32 ( io_testerDataWrite $end
   $var wire 1 5 clock $end
   $var wire 1 : io_testerEnable $end
   $var wire 32 M io_dataRead $end
   $var wire 32 N io_dataWrite $end
   $var wire 1 o io_testerWriteEnable $end
   $var wire 32 p _GEN_5 $end
   $var wire 16 "( io_address $end
   $var wire 1 ", io_writeEnable $end
   $var wire 16 "G io_testerAddress $end
   $var wire 32 "M memory $end
   $var wire 32 "^ io_testerDataRead $end
    $scope module memory $end
      $scope module _T_1 $end
       $var wire 16 & addr $end
       $var wire 16 3 pipeline_addr_0 $end
       $var wire 1 = en $end
       $var wire 32 ^ data $end
       $var wire 32 "" pipeline_data_0 $end
       $var wire 1 "B pipeline_valid_0 $end
       $var wire 1 "R valid $end
       $var wire 1 "` mask $end
       $var wire 1 "q clk $end
      $upscope $end
      $scope module _T $end
       $var wire 1 - clk $end
       $var wire 16 "' addr $end
       $var wire 1 "+ en $end
       $var wire 32 "h data $end
      $upscope $end
      $scope module _T_3 $end
       $var wire 1 ; pipeline_valid_0 $end
       $var wire 1 @ en $end
       $var wire 1 A mask $end
       $var wire 16 F pipeline_addr_0 $end
       $var wire 16 j addr $end
       $var wire 1 "% clk $end
       $var wire 32 "> pipeline_data_0 $end
       $var wire 32 "Q data $end
       $var wire 1 "| valid $end
      $upscope $end
      $scope module _T_2 $end
       $var wire 1 H clk $end
       $var wire 16 O addr $end
       $var wire 32 | data $end
       $var wire 1 "7 en $end
      $upscope $end
    $upscope $end
  $upscope $end
  $scope module accelerator $end
   $var wire 21 " _GEN_2 $end
   $var wire 4 $ _GEN_119 $end
   $var wire 4 % _GEN_13 $end
   $var wire 16 ' _GEN_96 $end
   $var wire 8 ) _GEN_125 $end
   $var wire 21 * _GEN_110 $end
   $var wire 16 + _GEN_28 $end
   $var wire 16 , _GEN_34 $end
   $var wire 1 . _GEN_104 $end
   $var wire 21 / _GEN_90 $end
   $var wire 4 0 _GEN_5 $end
   $var wire 16 1 _GEN_78 $end
   $var wire 16 2 _GEN_107 $end
   $var wire 21 4 _GEN_99 $end
   $var wire 4 6 _GEN_16 $end
   $var wire 16 8 _GEN_84 $end
   $var wire 16 9 outReg $end
   $var wire 16 < yReg $end
   $var wire 16 > _GEN_72 $end
   $var wire 16 ? _GEN_66 $end
   $var wire 16 B _GEN_87 $end
   $var wire 16 C _GEN_8 $end
   $var wire 16 D _GEN_93 $end
   $var wire 16 E _GEN_51 $end
   $var wire 16 G _GEN_81 $end
   $var wire 4 I _GEN_75 $end
   $var wire 16 J _GEN_48 $end
   $var wire 4 K _GEN_33 $end
   $var wire 16 L _GEN_54 $end
   $var wire 16 P _GEN_60 $end
   $var wire 16 Q _GEN_69 $end
   $var wire 16 R _GEN_106 $end
   $var wire 16 S _GEN_57 $end
   $var wire 16 T _GEN_127 $end
   $var wire 16 U _GEN_42 $end
   $var wire 16 V _GEN_112 $end
   $var wire 1 W _GEN_36 $end
   $var wire 16 X _GEN_63 $end
   $var wire 16 Y _GEN_21 $end
   $var wire 1 Z reset $end
   $var wire 1 [ _GEN_24 $end
   $var wire 4 \ _GEN_7 $end
   $var wire 16 ] _GEN_92 $end
   $var wire 16 _ _GEN_45 $end
   $var wire 8 ` _GEN_115 $end
   $var wire 21 a _GEN_121 $end
   $var wire 4 b _GEN_39 $end
   $var wire 4 d _GEN_109 $end
   $var wire 4 e _GEN_100 $end
   $var wire 1 f _GEN_118 $end
   $var wire 16 g _GEN_103 $end
   $var wire 8 i _GEN_74 $end
   $var wire 4 k _GEN_27 $end
   $var wire 8 l _GEN_95 $end
   $var wire 1 m _GEN_80 $end
   $var wire 1 n _GEN_89 $end
   $var wire 4 q stateReg $end
   $var wire 4 r _GEN_1 $end
   $var wire 16 t _GEN_77 $end
   $var wire 16 u _GEN_4 $end
   $var wire 4 v _GEN_83 $end
   $var wire 1 w _T $end
   $var wire 1 x _GEN_62 $end
   $var wire 1 y _GEN_98 $end
   $var wire 4 z _GEN_56 $end
   $var wire 16 { tempReg $end
   $var wire 16 } _GEN_38 $end
   $var wire 8 ~ _GEN_50 $end
   $var wire 8 "! _GEN_86 $end
   $var wire 1 "# _GEN_44 $end
   $var wire 8 "$ _GEN_59 $end
   $var wire 1 "& _GEN_71 $end
   $var wire 21 ") _GEN_129 $end
   $var wire 4 "* _GEN_65 $end
   $var wire 16 ". _GEN_32 $end
   $var wire 4 "/ _GEN_47 $end
   $var wire 1 "0 _GEN_53 $end
   $var wire 16 "1 _GEN_123 $end
   $var wire 16 "2 _GEN_117 $end
   $var wire 1 "3 io_done $end
   $var wire 16 "4 _GEN_11 $end
   $var wire 8 "5 _GEN_68 $end
   $var wire 16 "6 _GEN_26 $end
   $var wire 1 "8 io_writeEnable $end
   $var wire 16 "9 _GEN_35 $end
   $var wire 8 ": _GEN_41 $end
   $var wire 21 "; _GEN_111 $end
   $var wire 16 "? _GEN_126 $end
   $var wire 1 "@ _GEN_29 $end
   $var wire 16 "C _GEN_14 $end
   $var wire 8 "D _GEN_105 $end
   $var wire 16 "E xReg $end
   $var wire 21 "F _GEN_120 $end
   $var wire 1 "I _GEN_114 $end
   $var wire 16 "J _GEN_17 $end
   $var wire 32 "K io_dataWrite $end
   $var wire 1 "L _GEN_85 $end
   $var wire 16 "N inReg $end
   $var wire 4 "O _GEN_91 $end
   $var wire 1 "P _GEN_108 $end
   $var wire 21 "S _GEN_6 $end
   $var wire 4 "T _GEN_23 $end
   $var wire 4 "U _GEN_0 $end
   $var wire 16 "V io_address $end
   $var wire 1 "W clock $end
   $var wire 16 "X _GEN_9 $end
   $var wire 16 "Y _GEN_102 $end
   $var wire 16 "Z _GEN_88 $end
   $var wire 1 "[ io_start $end
   $var wire 32 "\ io_dataRead $end
   $var wire 1 "] _GEN_73 $end
   $var wire 1 "_ _GEN_67 $end
   $var wire 1 "a _GEN_94 $end
   $var wire 16 "b _GEN_61 $end
   $var wire 1 "c _GEN_49 $end
   $var wire 21 "d _GEN_82 $end
   $var wire 1 "e _GEN_40 $end
   $var wire 16 "f _GEN_97 $end
   $var wire 16 "g _GEN_55 $end
   $var wire 4 "i _GEN_3 $end
   $var wire 16 "j _GEN_76 $end
   $var wire 16 "k _GEN_113 $end
   $var wire 16 "l _GEN_79 $end
   $var wire 16 "m _GEN_70 $end
   $var wire 16 "o _GEN_37 $end
   $var wire 16 "p _GEN_43 $end
   $var wire 1 "r _GEN_58 $end
   $var wire 16 "s _GEN_22 $end
   $var wire 16 "t _GEN_64 $end
   $var wire 8 "u _GEN_31 $end
   $var wire 16 "v _GEN_116 $end
   $var wire 16 "w _GEN_46 $end
   $var wire 21 "x _GEN_101 $end
   $var wire 16 "y _GEN_52 $end
   $var wire 4 "z _GEN_10 $end
   $var wire 4 "{ _GEN_19 $end
  $upscope $end
$upscope $end
$enddefinitions $end
$dumpvars
b0000000000000000 ]
b000000000000000000000 "
0"7
0"L
b0000000000000000 +
b0000000000000000 "w
b0000000000000000 "b
b0000000000000000 t
b00000000000000000000000000000000 ">
0"c
b0000000000000000 "E
0o
b0000000000000000 B
0=
b0000 r
b0000 "z
b000000000000000000000 "S
b00000000000000000000000000000000 "M
0"P
b0000000000000000 "?
0"|
b0000000000000000 >
b00000000 `
0m
b000000000000000000000 "d
b0000000000000000 "X
b0000 K
b0000 6
0"[
05
0"r
b0000000000000000 Q
0"@
0"#
b0000000000000000 "k
b00000000000000000000000000000000 "\
0x
b0000000000000000 "N
b0000000000000000 "9
0[
b0000000000000000 "1
b000000000000000000000 a
0"n
0H
0@
b0000000000000000 "g
b0000000000000000 "J
0W
b00000000 ~
b0000000000000000 {
b0000000000000000 "v
b000000000000000000000 ";
0"8
b00000000000000000000000000000000 (
b0000 q
b0000000000000000 u
b0000000000000000 X
b0000000000000000 C
b0000 k
b0000000000000000 E
b0000 $
b00000000 ":
b0000000000000000 T
b0000000000000000 ?
0:
b0000000000000000 "Y
b00000000000000000000000000000000 |
0f
b0000000000000000 "<
b0000000000000000 "'
b0000000000000000 9
b0000000000000000 "p
b00000000 )
1A
b0000000000000000 3
b0000000000000000 "j
b0000000000000000 g
0w
b0000000000000000 J
b00000000 l
b0000 z
b000000000000000000000 "x
b0000 e
b000000000000000000000 "F
b0000000000000000 "2
b000000000000000000000 ")
0"=
b0000000000000000 1
b000000000000000000000 *
b0000000000000000 ".
0;
b0000 "/
b0000000000000000 _
0Z
b00000000000000000000000000000000 p
b0000000000000000 "(
b0000000000000000 "y
b00000000000000000000000000000000 !
0"e
b0000000000000000 "G
b0000000000000000 Y
b0000000000000000 D
0"H
0"3
b0000000000000000 '
b00000000000000000000000000000000 #
07
b0000000000000000 "s
b00000000 "$
0"_
b00000000 "u
b0000000000000000 "V
0"-
b00000000000000000000000000000000 "Q
b0000000000000000 "m
0"a
b0000000000000000 "C
b0000000000000000 U
b0000000000000000 8
b00000000000000000000000000000000 "h
b0000000000000000 "o
b0000000000000000 "Z
b00000000000000000000000000000000 "K
b00000000 "5
1"`
b0000000000000000 O
0-
b0000 b
0"]
b00000000000000000000000000000000 M
b0000 0
0"+
b0000000000000000 <
b0000 "U
b0000 d
b0000000000000000 }
b0000000000000000 S
b0000 \
0"W
0"B
0"%
b00000000000000000000000000000000 "^
b0000000000000000 j
b0000 I
b000000000000000000000 /
b00000000000000000000000000000000 ^
b0000000000000000 G
b0000000000000000 2
b00000000 i
b00000000 "D
0n
b0000000000000000 ,
b0000 "O
b00000000000000000000000000000000 ""
b0000000000000000 &
b0000 "{
0"I
b00000000000000000000000000000000 N
0",
b0000000000000000 "t
b0000000000000000 V
0"0
b00000000 "!
0h
0"q
b0000000000000000 P
b0000 "T
b0000000000000000 "6
b0000 "*
0.
b000000000000000000000 4
b0000000000000000 R
b00000000000000000000000000000000 c
0"A
b0000000000000000 "l
0y
b0000000000000000 L
0"&
b0000000000000000 "f
0s
0"R
b0000000000000000 "4
b0000000000000000 F
b0000 %
b0000 v
b0000 "i
$end
#0
b0000000110010000 u
b0101 %
1w
b0000000110010000 "X
1Z
1"n
b0101 6
b0101 \
b0101 0
b0010 r
b000000000000110010000 "S
b0011 "i
1"7
b0101 "z
b0101 "{
#1
1-
1"q
1"W
15
1"%
1H
1"-
#6
0-
0"q
0"W
05
0"%
0H
0"-
#11
1-
1"q
1"W
15
1"%
1H
1"-
#16
0-
0"q
0"W
05
0"%
0H
0"-
#21
1-
1"q
1"W
15
1"%
1H
1"-
#26
0-
0"q
0"W
05
0"%
0H
0"-
#31
1-
1"q
1"W
15
1"%
1H
1"-
#36
0-
0"q
0"W
05
0"%
0H
0"-
#41
1-
1"q
1"W
15
1"%
1H
1"-
#46
0-
0"W
05
0"%
1o
0Z
0"n
1=
0"-
17
1"R
0"q
1s
0"7
0H
1:
1"+
#51
1-
1"q
1"W
1"B
15
1"%
1H
1"-
#56
0-
0"q
0"W
b0000000000000001 &
05
0"%
0H
b0000000000000001 "G
0"-
b0000000000000001 "<
b0000000000000001 "'
#61
b0000000000000001 3
1-
1"q
1"W
15
1"%
1H
1"-
#66
0-
0"q
0"W
b0000000000000010 &
05
0"%
0H
b0000000000000010 "G
0"-
b0000000000000010 "<
b0000000000000010 "'
#71
b0000000000000010 3
1-
1"q
1"W
15
1"%
1H
1"-
#76
0-
0"q
0"W
b0000000000000011 &
05
0"%
0H
b0000000000000011 "G
0"-
b0000000000000011 "<
b0000000000000011 "'
#81
b0000000000000011 3
1-
1"q
1"W
15
1"%
1H
1"-
#86
0-
0"q
0"W
b0000000000000100 &
05
0"%
0H
b0000000000000100 "G
0"-
b0000000000000100 "<
b0000000000000100 "'
#91
b0000000000000100 3
1-
1"q
1"W
15
1"%
1H
1"-
#96
0-
0"q
0"W
b0000000000000101 &
05
0"%
0H
b0000000000000101 "G
0"-
b0000000000000101 "<
b0000000000000101 "'
#101
b0000000000000101 3
1-
1"q
1"W
15
1"%
1H
1"-
#106
0-
0"q
0"W
b0000000000000110 &
05
0"%
0H
b0000000000000110 "G
0"-
b0000000000000110 "<
b0000000000000110 "'
#111
b0000000000000110 3
1-
1"q
1"W
15
1"%
1H
1"-
#116
0-
0"q
0"W
b0000000000000111 &
05
0"%
0H
b0000000000000111 "G
0"-
b0000000000000111 "<
b0000000000000111 "'
#121
b0000000000000111 3
1-
1"q
1"W
15
1"%
1H
1"-
#126
0-
0"q
0"W
b0000000000001000 &
05
0"%
0H
b0000000000001000 "G
0"-
b0000000000001000 "<
b0000000000001000 "'
#131
b0000000000001000 3
1-
1"q
1"W
15
1"%
1H
1"-
#136
0-
0"q
0"W
b0000000000001001 &
05
0"%
0H
b0000000000001001 "G
0"-
b0000000000001001 "<
b0000000000001001 "'
#141
b0000000000001001 3
1-
1"q
1"W
15
1"%
1H
1"-
#146
0-
0"q
0"W
b0000000000001010 &
05
0"%
0H
b0000000000001010 "G
0"-
b0000000000001010 "<
b0000000000001010 "'
#151
b0000000000001010 3
1-
1"q
1"W
15
1"%
1H
1"-
#156
0-
0"q
0"W
b0000000000001011 &
05
0"%
0H
b0000000000001011 "G
0"-
b0000000000001011 "<
b0000000000001011 "'
#161
b0000000000001011 3
1-
1"q
1"W
15
1"%
1H
1"-
#166
0-
0"q
0"W
b0000000000001100 &
05
0"%
0H
b0000000000001100 "G
0"-
b0000000000001100 "<
b0000000000001100 "'
#171
b0000000000001100 3
1-
1"q
1"W
15
1"%
1H
1"-
#176
0-
0"q
0"W
b0000000000001101 &
05
0"%
0H
b0000000000001101 "G
0"-
b0000000000001101 "<
b0000000000001101 "'
#181
b0000000000001101 3
1-
1"q
1"W
15
1"%
1H
1"-
#186
0-
0"q
0"W
b0000000000001110 &
05
0"%
0H
b0000000000001110 "G
0"-
b0000000000001110 "<
b0000000000001110 "'
#191
b0000000000001110 3
1-
1"q
1"W
15
1"%
1H
1"-
#196
0-
0"q
0"W
b0000000000001111 &
05
0"%
0H
b0000000000001111 "G
0"-
b0000000000001111 "<
b0000000000001111 "'
#201
b0000000000001111 3
1-
1"q
1"W
15
1"%
1H
1"-
#206
0-
0"q
0"W
b0000000000010000 &
05
0"%
0H
b0000000000010000 "G
0"-
b0000000000010000 "<
b0000000000010000 "'
#211
b0000000000010000 3
1-
1"q
1"W
15
1"%
1H
1"-
#216
0-
0"q
0"W
b0000000000010001 &
05
0"%
0H
b0000000000010001 "G
0"-
b0000000000010001 "<
b0000000000010001 "'
#221
b0000000000010001 3
1-
1"q
1"W
15
1"%
1H
1"-
#226
0-
0"q
0"W
b0000000000010010 &
05
0"%
0H
b0000000000010010 "G
0"-
b0000000000010010 "<
b0000000000010010 "'
#231
b0000000000010010 3
1-
1"q
1"W
15
1"%
1H
1"-
#236
0-
0"q
0"W
b0000000000010011 &
05
0"%
0H
b0000000000010011 "G
0"-
b0000000000010011 "<
b0000000000010011 "'
#241
b0000000000010011 3
1-
1"q
1"W
15
1"%
1H
1"-
#246
0-
0"q
0"W
b0000000000010100 &
05
0"%
0H
b0000000000010100 "G
0"-
b0000000000010100 "<
b0000000000010100 "'
#251
b0000000000010100 3
1-
1"q
1"W
15
1"%
1H
1"-
#256
0-
0"q
0"W
b0000000000010101 &
05
0"%
0H
b0000000000010101 "G
0"-
b0000000000010101 "<
b0000000000010101 "'
#261
b0000000000010101 3
1-
1"q
1"W
15
1"%
1H
1"-
#266
0-
0"q
0"W
b0000000000010110 &
05
0"%
0H
b0000000000010110 "G
0"-
b0000000000010110 "<
b0000000000010110 "'
#271
b0000000000010110 3
1-
1"q
1"W
15
1"%
1H
1"-
#276
0-
0"q
0"W
b0000000000010111 &
05
0"%
0H
b0000000000010111 "G
0"-
b0000000000010111 "<
b0000000000010111 "'
#281
b0000000000010111 3
1-
1"q
1"W
15
1"%
1H
1"-
#286
0-
0"q
0"W
b0000000000011000 &
05
0"%
0H
b0000000000011000 "G
0"-
b0000000000011000 "<
b0000000000011000 "'
#291
b0000000000011000 3
1-
1"q
1"W
15
1"%
1H
1"-
#296
0-
0"q
0"W
b0000000000011001 &
05
0"%
0H
b0000000000011001 "G
0"-
b0000000000011001 "<
b0000000000011001 "'
#301
b0000000000011001 3
1-
1"q
1"W
15
1"%
1H
1"-
#306
0-
0"q
0"W
b0000000000011010 &
05
0"%
0H
b0000000000011010 "G
0"-
b0000000000011010 "<
b0000000000011010 "'
#311
b0000000000011010 3
1-
1"q
1"W
15
1"%
1H
1"-
#316
0-
0"q
0"W
b0000000000011011 &
05
0"%
0H
b0000000000011011 "G
0"-
b0000000000011011 "<
b0000000000011011 "'
#321
b0000000000011011 3
1-
1"q
1"W
15
1"%
1H
1"-
#326
0-
0"q
0"W
b0000000000011100 &
05
0"%
0H
b0000000000011100 "G
0"-
b0000000000011100 "<
b0000000000011100 "'
#331
b0000000000011100 3
1-
1"q
1"W
15
1"%
1H
1"-
#336
0-
0"q
0"W
b0000000000011101 &
05
0"%
0H
b0000000000011101 "G
0"-
b0000000000011101 "<
b0000000000011101 "'
#341
b0000000000011101 3
1-
1"q
1"W
15
1"%
1H
1"-
#346
0-
0"q
0"W
b0000000000011110 &
05
0"%
0H
b0000000000011110 "G
0"-
b0000000000011110 "<
b0000000000011110 "'
#351
b0000000000011110 3
1-
1"q
1"W
15
1"%
1H
1"-
#356
0-
0"q
0"W
b0000000000011111 &
05
0"%
0H
b0000000000011111 "G
0"-
b0000000000011111 "<
b0000000000011111 "'
#361
b0000000000011111 3
1-
1"q
1"W
15
1"%
1H
1"-
#366
0-
0"q
0"W
b0000000000100000 &
05
0"%
0H
b0000000000100000 "G
0"-
b0000000000100000 "<
b0000000000100000 "'
#371
b0000000000100000 3
1-
1"q
1"W
15
1"%
1H
1"-
#376
0-
0"q
0"W
b0000000000100001 &
05
0"%
0H
b0000000000100001 "G
0"-
b0000000000100001 "<
b0000000000100001 "'
#381
b0000000000100001 3
1-
1"q
1"W
15
1"%
1H
1"-
#386
0-
0"q
0"W
b0000000000100010 &
05
0"%
0H
b0000000000100010 "G
0"-
b0000000000100010 "<
b0000000000100010 "'
#391
b0000000000100010 3
1-
1"q
1"W
15
1"%
1H
1"-
#396
0-
0"q
0"W
b0000000000100011 &
05
0"%
0H
b0000000000100011 "G
0"-
b0000000000100011 "<
b0000000000100011 "'
#401
b0000000000100011 3
1-
1"q
1"W
15
1"%
1H
1"-
#406
0-
0"q
0"W
b0000000000100100 &
05
0"%
0H
b0000000000100100 "G
0"-
b0000000000100100 "<
b0000000000100100 "'
#411
b0000000000100100 3
1-
1"q
1"W
15
1"%
1H
1"-
#416
0-
0"q
0"W
b0000000000100101 &
05
0"%
0H
b0000000000100101 "G
0"-
b0000000000100101 "<
b0000000000100101 "'
#421
b0000000000100101 3
1-
1"q
1"W
15
1"%
1H
1"-
#426
0-
0"q
0"W
b0000000000100110 &
05
0"%
0H
b0000000000100110 "G
0"-
b0000000000100110 "<
b0000000000100110 "'
#431
b0000000000100110 3
1-
1"q
1"W
15
1"%
1H
1"-
#436
0-
0"q
0"W
b0000000000100111 &
05
0"%
0H
b0000000000100111 "G
0"-
b0000000000100111 "<
b0000000000100111 "'
#441
b0000000000100111 3
1-
1"q
1"W
15
1"%
1H
1"-
#446
0-
0"q
0"W
b0000000000101000 &
05
0"%
0H
b0000000000101000 "G
0"-
b0000000000101000 "<
b0000000000101000 "'
#451
b0000000000101000 3
1-
1"q
1"W
15
1"%
1H
1"-
#456
0-
0"q
0"W
b0000000000101001 &
05
0"%
0H
b0000000000101001 "G
0"-
b0000000000101001 "<
b0000000000101001 "'
#461
b0000000000101001 3
1-
1"q
1"W
15
1"%
1H
1"-
#466
0-
0"q
0"W
b0000000000101010 &
05
0"%
0H
b0000000000101010 "G
0"-
b0000000000101010 "<
b0000000000101010 "'
#471
b0000000000101010 3
1-
1"q
1"W
15
1"%
1H
1"-
#476
0-
0"q
0"W
b0000000000101011 &
05
0"%
0H
b0000000000101011 "G
0"-
b0000000000101011 "<
b0000000000101011 "'
#481
b0000000000101011 3
1-
1"q
1"W
15
1"%
1H
1"-
#486
0-
0"q
0"W
b0000000000101100 &
05
0"%
0H
b0000000000101100 "G
0"-
b0000000000101100 "<
b0000000000101100 "'
#491
b0000000000101100 3
1-
1"q
1"W
15
1"%
1H
1"-
#496
0-
0"q
0"W
b0000000000101101 &
05
0"%
0H
b0000000000101101 "G
0"-
b0000000000101101 "<
b0000000000101101 "'
#501
b0000000000101101 3
1-
1"q
1"W
15
1"%
1H
1"-
#506
0-
0"q
0"W
b0000000000101110 &
05
0"%
0H
b0000000000101110 "G
0"-
b0000000000101110 "<
b0000000000101110 "'
#511
b0000000000101110 3
1-
1"q
1"W
15
1"%
1H
1"-
#516
0-
0"q
0"W
b0000000000101111 &
05
0"%
0H
b0000000000101111 "G
0"-
b0000000000101111 "<
b0000000000101111 "'
#521
b0000000000101111 3
1-
1"q
1"W
15
1"%
1H
1"-
#526
0-
0"q
0"W
b0000000000110000 &
05
0"%
0H
b0000000000110000 "G
0"-
b0000000000110000 "<
b0000000000110000 "'
#531
b0000000000110000 3
1-
1"q
1"W
15
1"%
1H
1"-
#536
0-
0"q
0"W
b0000000000110001 &
05
0"%
0H
b0000000000110001 "G
0"-
b0000000000110001 "<
b0000000000110001 "'
#541
b0000000000110001 3
1-
1"q
1"W
15
1"%
1H
1"-
#546
0-
0"q
0"W
b0000000000110010 &
05
0"%
0H
b0000000000110010 "G
0"-
b0000000000110010 "<
b0000000000110010 "'
#551
b0000000000110010 3
1-
1"q
1"W
15
1"%
1H
1"-
#556
0-
0"q
0"W
b0000000000110011 &
05
0"%
0H
b0000000000110011 "G
0"-
b0000000000110011 "<
b0000000000110011 "'
#561
b0000000000110011 3
1-
1"q
1"W
15
1"%
1H
1"-
#566
0-
0"q
0"W
b0000000000110100 &
05
0"%
0H
b0000000000110100 "G
0"-
b0000000000110100 "<
b0000000000110100 "'
#571
b0000000000110100 3
1-
1"q
1"W
15
1"%
1H
1"-
#576
0-
0"q
0"W
b0000000000110101 &
05
0"%
0H
b0000000000110101 "G
0"-
b0000000000110101 "<
b0000000000110101 "'
#581
b0000000000110101 3
1-
1"q
1"W
15
1"%
1H
1"-
#586
0-
0"q
0"W
b0000000000110110 &
05
0"%
0H
b0000000000110110 "G
0"-
b0000000000110110 "<
b0000000000110110 "'
#591
b0000000000110110 3
1-
1"q
1"W
15
1"%
1H
1"-
#596
0-
0"q
0"W
b0000000000110111 &
05
0"%
0H
b0000000000110111 "G
0"-
b0000000000110111 "<
b0000000000110111 "'
#601
b0000000000110111 3
1-
1"q
1"W
15
1"%
1H
1"-
#606
0-
0"q
0"W
b0000000000111000 &
05
0"%
0H
b0000000000111000 "G
0"-
b0000000000111000 "<
b0000000000111000 "'
#611
b0000000000111000 3
1-
1"q
1"W
15
1"%
1H
1"-
#616
0-
0"q
0"W
b0000000000111001 &
05
0"%
0H
b0000000000111001 "G
0"-
b0000000000111001 "<
b0000000000111001 "'
#621
b0000000000111001 3
1-
1"q
1"W
15
1"%
1H
1"-
#626
0-
0"q
0"W
b0000000000111010 &
05
0"%
0H
b0000000000111010 "G
0"-
b0000000000111010 "<
b0000000000111010 "'
#631
b0000000000111010 3
1-
1"q
1"W
15
1"%
1H
1"-
#636
0-
0"q
0"W
b0000000000111011 &
05
0"%
0H
b0000000000111011 "G
0"-
b0000000000111011 "<
b0000000000111011 "'
#641
b0000000000111011 3
1-
1"q
1"W
15
1"%
1H
1"-
#646
0-
0"q
0"W
b0000000000111100 &
05
0"%
0H
b0000000000111100 "G
0"-
b0000000000111100 "<
b0000000000111100 "'
#651
b0000000000111100 3
1-
1"q
1"W
15
1"%
1H
1"-
#656
0-
0"q
0"W
b0000000000111101 &
05
0"%
0H
b0000000000111101 "G
0"-
b0000000000111101 "<
b0000000000111101 "'
#661
b0000000000111101 3
1-
1"q
1"W
15
1"%
1H
1"-
#666
0-
0"q
0"W
b0000000000111110 &
05
0"%
0H
b0000000000111110 "G
0"-
b0000000000111110 "<
b0000000000111110 "'
#671
b0000000000111110 3
1-
1"q
1"W
15
1"%
1H
1"-
#676
0-
0"q
0"W
b0000000000111111 &
05
0"%
0H
b0000000000111111 "G
0"-
b0000000000111111 "<
b0000000000111111 "'
#681
b0000000000111111 3
1-
1"q
1"W
15
1"%
1H
1"-
#686
0-
0"q
0"W
b0000000001000000 &
05
0"%
0H
b0000000001000000 "G
0"-
b0000000001000000 "<
b0000000001000000 "'
#691
b0000000001000000 3
1-
1"q
1"W
15
1"%
1H
1"-
#696
0-
0"q
0"W
b0000000001000001 &
05
0"%
0H
b0000000001000001 "G
0"-
b0000000001000001 "<
b0000000001000001 "'
#701
b0000000001000001 3
1-
1"q
1"W
15
1"%
1H
1"-
#706
0-
0"q
0"W
b0000000001000010 &
05
0"%
0H
b0000000001000010 "G
0"-
b0000000001000010 "<
b0000000001000010 "'
#711
b0000000001000010 3
1-
1"q
1"W
15
1"%
1H
1"-
#716
0-
0"q
0"W
b0000000001000011 &
05
0"%
0H
b0000000001000011 "G
0"-
b0000000001000011 "<
b0000000001000011 "'
#721
b0000000001000011 3
1-
1"q
1"W
15
1"%
1H
1"-
#726
0-
0"q
0"W
b0000000001000100 &
05
0"%
0H
b0000000001000100 "G
0"-
b0000000001000100 "<
b0000000001000100 "'
#731
b0000000001000100 3
1-
1"q
1"W
15
1"%
1H
1"-
#736
0-
0"q
0"W
b0000000001000101 &
05
0"%
0H
b0000000001000101 "G
0"-
b0000000001000101 "<
b0000000001000101 "'
#741
b0000000001000101 3
1-
1"q
1"W
15
1"%
1H
1"-
#746
0-
0"q
0"W
b0000000001000110 &
05
0"%
0H
b0000000001000110 "G
0"-
b0000000001000110 "<
b0000000001000110 "'
#751
b0000000001000110 3
1-
1"q
1"W
15
1"%
1H
1"-
#756
0-
0"q
0"W
b0000000001000111 &
05
0"%
0H
b0000000001000111 "G
0"-
b0000000001000111 "<
b0000000001000111 "'
#761
b0000000001000111 3
1-
1"q
1"W
15
1"%
1H
1"-
#766
0-
0"q
0"W
b0000000001001000 &
05
0"%
0H
b0000000001001000 "G
0"-
b0000000001001000 "<
b0000000001001000 "'
#771
b0000000001001000 3
1-
1"q
1"W
15
1"%
1H
1"-
#776
0-
0"q
0"W
b0000000001001001 &
05
0"%
0H
b0000000001001001 "G
0"-
b0000000001001001 "<
b0000000001001001 "'
#781
b0000000001001001 3
1-
1"q
1"W
15
1"%
1H
1"-
#786
0-
0"q
0"W
b0000000001001010 &
05
0"%
0H
b0000000001001010 "G
0"-
b0000000001001010 "<
b0000000001001010 "'
#791
b0000000001001010 3
1-
1"q
1"W
15
1"%
1H
1"-
#796
0-
0"q
0"W
b0000000001001011 &
05
0"%
0H
b0000000001001011 "G
0"-
b0000000001001011 "<
b0000000001001011 "'
#801
b0000000001001011 3
1-
1"q
1"W
15
1"%
1H
1"-
#806
0-
0"q
0"W
b0000000001001100 &
05
0"%
0H
b0000000001001100 "G
0"-
b0000000001001100 "<
b0000000001001100 "'
#811
b0000000001001100 3
1-
1"q
1"W
15
1"%
1H
1"-
#816
0-
0"q
0"W
b0000000001001101 &
05
0"%
0H
b0000000001001101 "G
0"-
b0000000001001101 "<
b0000000001001101 "'
#821
b0000000001001101 3
1-
1"q
1"W
15
1"%
1H
1"-
#826
0-
0"q
0"W
b0000000001001110 &
05
0"%
0H
b0000000001001110 "G
0"-
b0000000001001110 "<
b0000000001001110 "'
#831
b0000000001001110 3
1-
1"q
1"W
15
1"%
1H
1"-
#836
0-
0"q
0"W
b0000000001001111 &
05
0"%
0H
b0000000001001111 "G
0"-
b0000000001001111 "<
b0000000001001111 "'
#841
b0000000001001111 3
1-
1"q
1"W
15
1"%
1H
1"-
#846
0-
0"q
0"W
b0000000001010000 &
05
0"%
0H
b0000000001010000 "G
0"-
b0000000001010000 "<
b0000000001010000 "'
#851
b0000000001010000 3
1-
1"q
1"W
15
1"%
1H
1"-
#856
0-
0"q
0"W
b0000000001010001 &
05
0"%
0H
b0000000001010001 "G
0"-
b0000000001010001 "<
b0000000001010001 "'
#861
b0000000001010001 3
1-
1"q
1"W
15
1"%
1H
1"-
#866
0-
0"q
0"W
b0000000001010010 &
05
0"%
0H
b0000000001010010 "G
0"-
b0000000001010010 "<
b0000000001010010 "'
#871
b0000000001010010 3
1-
1"q
1"W
15
1"%
1H
1"-
#876
0-
0"q
0"W
b0000000001010011 &
05
0"%
0H
b0000000001010011 "G
0"-
b0000000001010011 "<
b0000000001010011 "'
#881
b0000000001010011 3
1-
1"q
1"W
15
1"%
1H
1"-
#886
0-
0"q
0"W
b0000000001010100 &
05
0"%
0H
b0000000001010100 "G
0"-
b0000000001010100 "<
b0000000001010100 "'
#891
b0000000001010100 3
1-
1"q
1"W
15
1"%
1H
1"-
#896
0-
0"q
0"W
b0000000001010101 &
05
0"%
0H
b0000000001010101 "G
0"-
b0000000001010101 "<
b0000000001010101 "'
#901
b0000000001010101 3
1-
1"q
1"W
15
1"%
1H
1"-
#906
0-
0"q
0"W
b0000000001010110 &
05
0"%
0H
b0000000001010110 "G
0"-
b0000000001010110 "<
b0000000001010110 "'
#911
b0000000001010110 3
1-
1"q
1"W
15
1"%
1H
1"-
